{
	"header": {
		"@": {
			"image": "sheep_head.png",
			"background-size": "32px",
			"width": "296px",
			"height": "40px",
			"z-index": "2",
			"position": "relative",
			"background-position": "3px 3px",
			"background-repeat": "no-repeat",
			"padding": "0",
			"margin": "0"
		},
		"apptitle": {
			"line-height": "35px",
			"text-align": "left",
			"display": "block",
			"color": "#D1F5F1",
			"font-size": "12px",
			"font-family": "Verdana",
			"font-weight": "600",
			"padding": "0 40px",
			"text-shadow": "1px 1px 1px black;",
			"border-bottom": "1px solid rgba(255, 255, 255, 0.15)"
		}
	},
	"statistic": {
		"channels_status": {
			"display": "block !important"
		},
		"channel": {
			"font-weight": "600",
			"font-size": "12px",
			"top": "1px !important",
			"left": "-5px !important",
			"line-height": "15px",
			"padding-left": "16px",
			"margin-right": "4px !important",
			"margin-bottom": "7px",
			"width": "auto !important"
		}
	},
	"message": {
		"@": {
			"padding": "0",
			"text-shadow": "1px 1px 1px black;"
		},
		"channel": {
			"display": "inline-block",
			"background-size": "contain",
			"-webkit-background-size": "contain",
			"width": "13px",
			"height": "13px",
			"position": "relative",
			"top": "2px",
			"margin-right": "5px",
			"left": "0"
		},
		"title": {
			"background-repeat": "no-repeat",
			"width": "100%",
			"height": "24px",
			"position": "relative",
			"top": "0",
			"z-index": "1",
			"font-size": "12px",
			"font-weight": "600",
			"font-family": "Verdana",
			"color": "#BAEFE9",
			"text-overflow": "ellipsis",
			"white-space": "nowrap",
			"overflow": "hidden",
			"line-height": "24px",
			"padding-left": "12px",
			"padding-right": "12px"
		},
		"text": {
			"margin": "-3px 0 10px",
			"padding": "0 12px",
			"width": "100%",
			"position": "relative",
			"z-index": "2",
			"-webkit-line-clamp": "5",
			"overflow": "hidden",
			"text-overflow": "ellipsis",
			"line-height": "14px",
			"word-wrap": "break-word",
			"font-family": "Verdana",
			"display": "-webkit-box",
			"font-weight": "600",
			"font-size": "11px",
			"color": "#DAE9FF",
			"-webkit-box-orient": "vertical",
			"min-height": "18px"
		},
		"bottom": {
			"display": "none"
		}
	}
}