{
	"id":15,
	"name":"Stone Tablet",
	"key":"stone_tablet",
	"cover":"\/\/cache.sheep.chat\/images\/themes\/stone_tablet.png",
	"dir":"stone_tablet",
	"private":0,
	"user_id":0,
	"scheme":"light",
	"version":1,
	"premium":1,
	"sys":1,
	"owner":0,
	"api_level":9,
	"modify":0
}