{
    "aces": {
        "name": "Aces.gg",
        "locale_name": {
            "ru": "Aces.gg",
            "en": "Aces.gg"
        },
        "desc": {
            "ru": "В поле \"Канал\" необходимо вставить идентификатор канала. Идентификатор канала можно получить из ссылки на канал, примеры ссылок:<br><br>http://aces.gg/streams/stream/kinozal_maanisha/<br>Идентификатор: kinozal_maanisha",
            "en": "In the field \"Channel\" it is necessary to insert the identifier of the channel. The channel identifier can be obtained from the reference channel, examples links:<br><br>http://aces.gg/streams/stream/kinozal_maanisha/<br>Identifier: kinozal_maanisha"
        },
        "available": false,
        "version": "0",
        "dev": "undefined",
        "hash": "undefined",
        "ng": "0"
    },
    "cybergame": {
        "name": "CyberGame",
        "locale_name": {
            "ru": "CyberGame",
            "en": "CyberGame"
        },
        "desc": {
            "ru": "В поле \"Канал\" необходимо вставить идентификатор канала. Идентификатор канала можно получить из ссылки на канал, примеры ссылок:<br><br>http://cybergame.tv/atplay/<br>Идентификатор: atplay",
            "en": "In the field \"Channel\" it is necessary to insert the identifier of the channel. The channel identifier can be obtained from the reference channel, examples links:<br><br>http://cybergame.tv/atplay/<br>Identifier: atplay"
        },
        "available": true,
        "version": "2",
        "dev": "2bc8f9b390ef31691f4d14342d746459",
        "hash": "3e99939d1fe4631a2308e904a6c7d78f",
        "ng": "1"
    },
    "gamerstv": {
        "name": "GamersTV",
        "locale_name": {
            "ru": "GamersTV",
            "en": "GamersTV"
        },
        "desc": {
            "ru": "В поле \"Канал\" необходимо вставить идентификатор канала. Идентификатор канала можно получить из ссылки на канал, примеры ссылок:<br><br>http://gamerstv.ru/video/i173.html<br>Идентификатор: i173",
            "en": "In the field \"Channel\" it is necessary to insert the identifier of the channel. The channel identifier can be obtained from the reference channel, examples links:<br><br>http://gamerstv.ru/video/i173.html<br>Identifier: i173"
        },
        "available": true,
        "version": "2",
        "dev": "976f485591ef257ee363b9839902f1a0",
        "hash": "92acd7b091d4bdc7767caec7e21b2f10",
        "ng": "1"
    },
    "gip": {
        "name": "GipsyTeam",
        "locale_name": {
            "ru": "GipsyTeam",
            "en": "GipsyTeam"
        },
        "desc": {
            "ru": "В поле \"Канал\" необходимо вставить идентификатор канала. Идентификатор канала можно получить из ссылки на канал, примеры ссылок:<br><br>http://www.gipsyteam.ru/live/stream/9295-luchshe-pozzhe-chem-nikogda<br>Идентификатор: 9295-luchshe-pozzhe-chem-nikogda",
            "en": "In the field \"Channel\" it is necessary to insert the identifier of the channel. The channel identifier can be obtained from the reference channel, examples links:<br><br>http://www.gipsyteam.ru/live/stream/9295-luchshe-pozzhe-chem-nikogda<br>Identifier: 9295-luchshe-pozzhe-chem-nikogda"
        },
        "available": true,
        "version": "2",
        "dev": "addaba12afeedd29f53a450d7f703b41",
        "hash": "fc5703faf9d914eb0a716d577eee653f",
        "ng": "1"
    },
    "goodgame": {
        "name": "GoodGame",
        "locale_name": {
            "ru": "GoodGame",
            "en": "GoodGame"
        },
        "desc": {
            "ru": "В поле \"Канал\" необходимо вставить идентификатор канала. Идентификатор канала можно получить из ссылки на канал, примеры ссылок:<br><br>http://goodgame.ru/channel/streamota/autoplay/<br>http://goodgame.ru/channel/streamota/<br>Идентификатор: streamota",
            "en": "In the field \"Channel\" it is necessary to insert the identifier of the channel. The channel identifier can be obtained from the reference channel, examples links:<br><br>http://goodgame.ru/channel/streamota/autoplay/<br>http://goodgame.ru/channel/streamota/<br>Identifier: streamota"
        },
        "available": true,
        "version": "8",
        "dev": "ec6d77150e33f5eae053e0b7ba825365",
        "hash": "daa4aa27ee44675f4c1d3749b88c0e1f",
        "ng": "1"
    },
    "mobcrush": {
        "name": "Mobcrush",
        "locale_name": {
            "ru": "Mobcrush",
            "en": "Mobcrush"
        },
        "desc": {
            "ru": "В поле \"Канал\" необходимо вставить идентификатор канала. Идентификатор канала можно получить из ссылки на канал, примеры ссылок:<br><br>https://www.mobcrush.com/L3oN<br>Идентификатор: L3oN",
            "en": "In the field \"Channel\" it is necessary to insert the identifier of the channel. The channel identifier can be obtained from the reference channel, examples links:<br><br>https://www.mobcrush.com/L3oN<br>Identifier: L3oN"
        },
        "available": true,
        "version": "2",
        "dev": "d151ba61bbfdee6fbcbbac74da037bb9",
        "hash": "ccf61095ef0fc5b635ea560c0f8c94d7",
        "ng": "1"
    },
    "oklive": {
        "name": "Ok.ru (Odnoklassniki)",
        "locale_name": {
            "ru": "Одноклассники Live",
            "en": "Ok.ru (Odnoklassniki)"
        },
        "desc": {
            "ru": "В поле \"Канал\" необходимо вставить идентификатор канала. Идентификатор канала можно получить из ссылки на канал, примеры ссылок:<br><br>https://ok.ru/video/234285571618<br>Идентификатор: 234285571618",
            "en": "In the field \"Channel\" it is necessary to insert the identifier of the channel. The channel identifier can be obtained from the reference channel, examples links:<br><br>https://ok.ru/video/234285571618<br>Identifier: 234285571618"
        },
        "available": true,
        "version": "3",
        "dev": "ef840512d69df6e19ac45d2b8a1c537e",
        "hash": "55009019805cac056b15aa3f6898c714",
        "ng": "1"
    },
    "peka2tv": {
        "name": "Peka2TV",
        "locale_name": {
            "ru": "Peka2TV",
            "en": "Peka2TV"
        },
        "desc": {
            "ru": "В поле \"Канал\" необходимо вставить идентификатор канала. Идентификатор канала можно получить из ссылки на канал, примеры ссылок:<br><br>http://peka2.tv/singollo<br>Идентификатор: singollo",
            "en": "In the field \"Channel\" it is necessary to insert the identifier of the channel. The channel identifier can be obtained from the reference channel, examples links:<br><br>http://peka2.tv/singollo<br>Identifier: singollo"
        },
        "available": true,
        "version": "3",
        "dev": "936760dbb5b3f52e9fa5650a0b9a940c",
        "hash": "35c599ebfedd3d3cf50e8032a07edd50",
        "ng": "1"
    },
    "picarto": {
        "name": "Picarto.TV",
        "locale_name": {
            "ru": "Picarto.TV",
            "en": "Picarto.TV"
        },
        "desc": {
            "ru": "В поле \"Канал\" необходимо вставить идентификатор канала. Идентификатор канала можно получить из ссылки на канал, примеры ссылок:<br><br>https://picarto.tv/MxBones<br>Идентификатор: MxBones",
            "en": "In the field \"Channel\" it is necessary to insert the identifier of the channel. The channel identifier can be obtained from the reference channel, examples links:<br><br>https://picarto.tv/MxBones<br>Identifier: MxBones"
        },
        "available": false,
        "version": "0",
        "dev": "undefined",
        "hash": "undefined",
        "ng": "0"
    },
    "piczel": {
        "name": "Piczel.TV",
        "locale_name": {
            "ru": "Piczel.TV",
            "en": "Piczel.TV"
        },
        "desc": {
            "ru": "В поле \"Канал\" необходимо вставить идентификатор канала. Идентификатор канала можно получить из ссылки на канал, примеры ссылок:<br><br>https://piczel.tv/watch/algolagnie<br>Идентификатор: algolagnie",
            "en": "In the field \"Channel\" it is necessary to insert the identifier of the channel. The channel identifier can be obtained from the reference channel, examples links:<br><br>https://piczel.tv/watch/algolagnie<br>Identifier: algolagnie"
        },
        "available": false,
        "version": "0",
        "dev": "undefined",
        "hash": "undefined",
        "ng": "0"
    },
    "sc2tv": {
        "name": "SC2TV (Funstream.tv)",
        "locale_name": {
            "ru": "SC2TV (Funstream.tv)",
            "en": "SC2TV (Funstream.tv)"
        },
        "desc": {
            "ru": "В поле \"Канал\" необходимо вставить идентификатор канала. Идентификатор канала можно получить из ссылки на канал, примеры ссылок:<br><br>http://sc2tv.ru/channel/powernet<br>http://funstream.tv/stream/powernet<br>Идентификатор: powernet",
            "en": "In the field \"Channel\" it is necessary to insert the identifier of the channel. The channel identifier can be obtained from the reference channel, examples links:<br><br>http://sc2tv.ru/channel/powernet<br>http://funstream.tv/stream/powernet<br>Identifier: powernet"
        },
        "available": true,
        "version": "3",
        "dev": "a7354f8eb5a3b6b99005032a981f528c",
        "hash": "75b2ed72a696e953d22a9137ae5f7160",
        "ng": "1"
    },
    "smashcast": {
        "name": "Smashcast",
        "locale_name": {
            "ru": "Smashcast",
            "en": "Smashcast"
        },
        "desc": {
            "ru": "В поле \"Канал\" необходимо вставить идентификатор канала. Идентификатор канала можно получить из ссылки на канал, примеры ссылок:<br><br>https://www.smashcast.tv/sheepchat<br>Идентификатор: sheepchat",
            "en": "In the field \"Channel\" it is necessary to insert the identifier of the channel. The channel identifier can be obtained from the reference channel, examples links:<br><br>https://www.smashcast.tv/sheepchat<br>Identifier: sheepchat"
        },
        "available": true,
        "version": "4",
        "dev": "5112f3f6530098ea81816859fca49a00",
        "hash": "f97ffbb670bcdf03d78279815fed1626",
        "ng": "1"
    },
    "smotri": {
        "name": "Smotri.com",
        "locale_name": {
            "ru": "Smotri.com",
            "en": "Smotri.com"
        },
        "desc": {
            "ru": "В поле \"Канал\" необходимо вставить идентификатор канала. Идентификатор канала можно получить из ссылки на канал, примеры ссылок:<br><br>http://smotri.com/live/sumkina/<br>Идентификатор: sumkina",
            "en": "In the field \"Channel\" it is necessary to insert the identifier of the channel. The channel identifier can be obtained from the reference channel, examples links:<br><br>http://smotri.com/live/sumkina/<br>Identifier: sumkina"
        },
        "available": false,
        "version": "0",
        "dev": "undefined",
        "hash": "undefined",
        "ng": "0"
    },
    "streamcube": {
        "name": "StreamCube.tv",
        "locale_name": {
            "ru": "StreamCube.tv",
            "en": "StreamCube.tv"
        },
        "desc": {
            "ru": "В поле \"Канал\" необходимо вставить идентификатор канала. Идентификатор канала можно получить из ссылки на канал, примеры ссылок:<br><br>https://streamcube.tv/blooddiamond59<br>Идентификатор: blooddiamond59",
            "en": "In the field \"Channel\" it is necessary to insert the identifier of the channel. The channel identifier can be obtained from the reference channel, examples links:<br><br>https://streamcube.tv/blooddiamond59<br>Identifier: blooddiamond59"
        },
        "available": true,
        "version": "2",
        "dev": "5fded0f97b31eb391e81e67e150ec081",
        "hash": "6771117318860df0f117ee5eeb6c5b2e",
        "ng": "1"
    },
    "mixer": {
        "name": "Mixer",
        "locale_name": {
            "ru": "Mixer",
            "en": "Mixer"
        },
        "desc": {
            "ru": "В поле \"Канал\" необходимо вставить идентификатор канала. Идентификатор канала можно получить из ссылки на канал, примеры ссылок:<br><br>https://mixer.com/HypeZoneFortnite<br>Идентификатор: HypeZoneFortnite",
            "en": "In the field \"Channel\" it is necessary to insert the identifier of the channel. The channel identifier can be obtained from the reference channel, examples links:<br><br>https://mixer.com/HypeZoneFortnite<br>Identifier: HypeZoneFortnite"
        },
        "available": true,
        "version": "2",
        "dev": "597a33b0ffafc88a365fe5c64431e44e",
        "hash": "f0d3c965af6f2fdcd4af2d1841c5a2a1",
        "ng": "1"
    },
    "twitch": {
        "name": "Twitch",
        "locale_name": {
            "ru": "Twitch",
            "en": "Twitch"
        },
        "desc": {
            "ru": "В поле \"Канал\" необходимо вставить идентификатор канала. Идентификатор канала можно получить из ссылки на канал, примеры ссылок:<br><br>https://www.twitch.tv/illidanstrdoto<br>Идентификатор: illidanstrdoto",
            "en": "In the field \"Channel\" it is necessary to insert the identifier of the channel. The channel identifier can be obtained from the reference channel, examples links:<br><br>https://www.twitch.tv/illidanstrdoto<br>Identifier: illidanstrdoto"
        },
        "available": true,
        "version": "6",
        "dev": "49fe7dfe81c7b2652c35b16e6dc575d8",
        "hash": "3f6c9bd16fa28b8b5a8b22eb037cdad5",
        "ng": "1"
    },
    "vidi": {
        "name": "Vidi.tv",
        "locale_name": {
            "ru": "Vidi.tv",
            "en": "Vidi.tv"
        },
        "desc": {
            "ru": "В поле \"Канал\" необходимо вставить идентификатор канала. Идентификатор канала можно получить из ссылки на канал, примеры ссылок:<br><br>http://vidi.tv/lerss<br>Идентификатор: lerss",
            "en": "In the field \"Channel\" it is necessary to insert the identifier of the channel. The channel identifier can be obtained from the reference channel, examples links:<br><br>http://vidi.tv/lerss<br>Identifier: lerss"
        },
        "available": false,
        "version": "0",
        "dev": "undefined",
        "hash": "undefined",
        "ng": "0"
    },
    "vklive": {
        "name": "VKLive",
        "locale_name": {
            "ru": "Стриминг VK.com",
            "en": "VK.com Streaming"
        },
        "desc": {
            "ru": "В поле \"Канал\" необходимо вставить ссылку на профиль, страницу сообщества или полную ссылку на трансляцию, примеры ссылок:<br><br>https://vk.com/video?z=video-62848000_456239029%2Fa11b69b5b14888d2c6%2Fpl_cat_lives<br>https://vk.com/video?z=video160865126_456239059%2Fpl_cat_lives",
            "en": "In the \"Channel\" field, you must insert a link to a profile, a community page, or a full link to the broadcast, examples links:<br><br>https://vk.com/video?z=video-62848000_456239029%2Fa11b69b5b14888d2c6%2Fpl_cat_lives<br>https://vk.com/video?z=video160865126_456239059%2Fpl_cat_lives"
        },
        "available": true,
        "version": "18",
        "dev": "081cfec9822841a93297d4cc025b180e",
        "hash": "3c675b5cf717e44c3dbb2610939f0828",
        "ng": "1"
    },
    "vktopic": {
        "name": "VKTopic",
        "locale_name": {
            "ru": "Обсуждения VK.com",
            "en": "VK.com Discussion"
        },
        "desc": {
            "ru": "В поле \"Канал\" необходимо вставить идентификатор канала. Идентификатор канала можно получить из ссылки на канал, примеры ссылок:<br><br>https://new.vk.com/topic-115491599_33855102<br>Идентификатор: 115491599_33855102",
            "en": "In the field \"Channel\" it is necessary to insert the identifier of the channel. The channel identifier can be obtained from the reference channel, examples links:<br><br>https://new.vk.com/topic-115491599_33855102<br>Identifier: 115491599_33855102"
        },
        "available": false,
        "version": "0",
        "dev": "undefined",
        "hash": "undefined",
        "ng": "0"
    },
    "youtube": {
        "name": "YouTube (& Gaming)",
        "locale_name": {
            "ru": "YouTube (& Gaming)",
            "en": "YouTube (& Gaming)"
        },
        "desc": {
            "ru": "В поле \"Канал\" необходимо вставить полную ссылку на трансляцию или канал, ссылка автоматически будет сконвертированна в идентификатор. Так же вы можете вставить идентификатор самостоятельно.",
            "en": "In the field \"Channel\" it is necessary to insert the full url to broadcasting or the channel, url will be automatically converted in the identifier. Also you can insert the identifier independently."
        },
        "available": true,
        "version": "4",
        "dev": "c761487b315ac0eb5af06943366c3086",
        "hash": "2e615e7c968b2abc32d551ff788eb000",
        "ng": "1"
    }
}