{
	"id":7,
	"name":"StarCraft 2",
	"key":"sc2",
	"cover":"\/\/cache.sheep.chat\/images\/themes\/sc2.jpg",
	"dir":"161969a14430f499d44c3a950e6fc137",
	"private":0,
	"user_id":0,
	"scheme":"dark",
	"version":1,
	"premium":0,
	"sys":1,
	"owner":0,
	"api_level":0,
	"modify":0
}