{
	"header": {
		"@": {
			"image": "header.png",
			"width": "296px",
			"height": "74px",
			"z-index": "2",
			"position": "relative",
			"background-position": "top left",
			"background-repeat": "no-repeat",
			"padding": "0",
			"margin": "0"
		},
		"apptitle": {
			"line-height": "18px",
			"text-align": "left",
			"display": "block",
			"color": "#92c1bc",
			"font-size": "11px",
			"font-family": "Verdana",
			"font-weight": "600",
			"padding": "29px 98px 0"
		}
	},
	"statistic": {
		"channels_status": {
			"display": "block !important"
		},
		"channel": {
			"font-weight": "600",
			"font-size": "12px",
			"top": "1px !important",
			"left": "-5px !important",
			"line-height": "15px",
			"padding-left": "16px",
			"margin-right": "4px !important",
			"margin-bottom": "7px",
			"width": "auto !important"
		}
	},
	"message": {
		"@": {
			"padding": "0"
		},
		"channel": {
			"display": "inline-block",
			"background-size": "contain",
			"-webkit-background-size": "contain",
			"width": "13px",
			"height": "13px",
			"position": "relative",
			"top": "2px",
			"margin-right": "4px",
			"left": "0"
		},
		"title": {
			"image": "top.png",
			"background-repeat": "no-repeat",
			"width": "296px",
			"height": "37px",
			"position": "relative",
			"top": "0",
			"z-index": "1",
			"font-size": "11px",
			"font-weight": "600",
			"font-family": "Verdana",
			"color": "#92c1bc",
			"text-overflow": "ellipsis",
			"white-space": "nowrap",
			"overflow": "hidden",
			"line-height": "38px",
			"padding-left": "38px",
			"padding-right": "30px"
		},
		"text": {
			"margin": "-6px 0 -15px",
			"padding": "1px 18px 15px",
			"width": "296px",
			"position": "relative",
			"z-index": "2",
			"-webkit-line-clamp": "5",
			"overflow": "hidden",
			"text-overflow": "ellipsis",
			"line-height": "14px",
			"word-wrap": "break-word",
			"font-family": "Verdana",
			"display": "-webkit-box",
			"font-weight": "600",
			"font-size": "11px",
			"color": "#A1B8DA",
			"-webkit-box-orient": "vertical",
			"min-height": "18px",
			"before": {
				"image": "middle.png",
				"background-repeat": "repeat-y",
				"position": "absolute",
				"width": "100%",
				"height": "calc(100% - 13px)",
				"left": "0",
				"top": "0",
				"border-radius": "2px",
				"z-index": "-1"
			}
		},
		"font": {
			"overflow": "hidden",
			"padding": "1px 0 2px"
		},
		"bottom": {
			"image": "bottom.png",
			"background-repeat": "no-repeat",
			"width": "296px",
			"height": "15px",
			"position": "relative",
			"bottom": "0",
			"z-index": "1"
		}
	}
}