{
	"extra": {
		"js": "fx.js",
		"css": "fx.css"
	},
	"header": {
		"@": {
			"image": "header.png",
			"background-color": "rgba(0, 0, 0, 0.01)",
			"width": "100%",
			"height": "48px",
			"z-index": "2",
			"position": "relative",
			"background-position": "top left",
			"background-repeat": "no-repeat",
			"padding": "0",
			"margin": "0"
		},
		"apptitle": {
			"display": "none"
		}
	},
	"statistic": {
		"channels_status": {
			"display": "block !important"
		},
		"channel": {
			"font-size": "12px",
			"top": "1px !important",
			"left": "-5px !important",
			"line-height": "15px",
			"padding-left": "16px",
			"background-color": "rgba(255, 128, 0, 0.85)",
			"padding": "5px 6px 5px 25px",
			"height": "auto !important",
			"width": "auto !important",
			"background-size": "initial !important",
			"-webkit-background-size": "initial !important",
			"background-position": "5px center !important",
			"margin": "1px -1px 2px 4px !important",
			"font-family": "'TT Supermolot'",
			"font-weight": "500",
			"letter-spacing": "1px"
		}
	},
	"message": {
		"@": {
			"padding": "0 0 6px",
			"margin": "10px 0 0",
			"background": "linear-gradient(135deg, rgba(58,50,40,0.44) 0%,rgba(44,37,30,0.49) 44%,rgba(23, 19, 15, 0.55) 100%)",
			"border-radius": "2px",
			"box-shadow": "0 0 2px rgba(0, 0, 0, 0.25)",
			"position": "relative",
			"overflow": "visible"
		},
		"channel": {
			"display": "inline-block",
			"background-size": "contain",
			"-webkit-background-size": "contain",
			"width": "13px",
			"height": "13px",
			"position": "relative",
			"top": "2px",
			"margin-right": "4px",
			"left": "0"
		},
		"title": {
			"width": "100%",
			"height": "30px",
			"letter-spacing": "0.4px",
			"position": "relative",
			"top": "0",
			"z-index": "1",
			"font-size": "16px",
			"color": "#e8e8e8",
			"text-overflow": "ellipsis",
			"white-space": "nowrap",
			"overflow": "hidden",
			"font-family": "'TT Supermolot'",
			"font-weight": "500",
			"padding": "0 7px 0 38px",
			"line-height": "30px",
			"before": {
				"position": "absolute",
				"top": "0",
				"right": "0",
				"background": "rgba(255, 255, 255, 0.72)",
				"width": "2px",
				"height": "2px",
				"box-shadow": "0 0 2px 1px rgba(255, 255, 255, 0.3)"
			}
		},
		"text": {
			"width": "100%",
			"z-index": "2",
			"-webkit-line-clamp": "5",
			"overflow": "hidden",
			"text-overflow": "ellipsis",
			"line-height": "14px",
			"word-wrap": "break-word",
			"display": "-webkit-box",
			"font-size": "14px",
			"color": "rgba(255, 255, 255, 0.88)",
			"-webkit-box-orient": "vertical",
			"min-height": "18px",
			"font-family": "'TT Supermolot'",
			"font-weight": "400",
			"box-shadow": "inset 0 1px 1px rgba(255, 255, 255, 0.1)",
			"margin": "0",
			"padding": "6px 8px 0"
		},
		"bottom": {
			"background-repeat": "no-repeat",
			"width": "100%",
			"height": "0",
			"position": "absolute",
			"bottom": "0",
			"z-index": "1",
			"before": {
				"position": "absolute",
				"bottom": "0",
				"right": "0",
				"background": "rgba(255, 255, 255, 0.72)",
				"width": "2px",
				"height": "2px",
				"box-shadow": "0 0 2px 1px rgba(255, 255, 255, 0.3)"
			}
		}
	}
}