{
	"id":12,
	"name":"The Division (EV. Z.)",
	"key":"thedivisionevz",
	"cover":"\/\/cache.sheep.chat\/images\/themes\/thedivisionevz.jpg",
	"dir":"8b5f786dbbcf0858bbc935b28ac49559",
	"private":1,
	"user_id":527,
	"scheme":"dark",
	"version":1,
	"premium":0,
	"sys":1,
	"owner":0,
	"api_level":0,
	"modify":0
}