{
	"tts": ["https://rs2.sheep.chat"],
	"rest": ["https://sheep.chat"],
	"distribs": ["https://git.sheep.chat", "https://git2.sheep.chat"],
	"endpoints": [
		"https://raw.githubusercontent.com/evstafev/sheepChat/master",
		"https://bitbucket.org/evstafev/sheepchat/raw/master",
		"https://git.sheep.chat",
		"https://git2.sheep.chat"
	]
}
