{
	"header": {
		"@": {
			"image": "header.png",
			"width": "296px",
			"height": "48px",
			"z-index": "2",
			"position": "relative",
			"background-position": "top left",
			"background-repeat": "no-repeat",
			"padding": "0",
			"margin": "0"
		},
		"apptitle": {
			"line-height": "54px",
			"text-align": "left",
			"display": "block",
			"color": "#ECECEC",
			"font-size": "18px",
			"font-family": "Calibri, Verdana",
			"padding": "0 24px"
		}
	},
	"statistic": {
		"channels_status": {
			"display": "block !important"
		},
		"channel": {
			"font-weight": "600",
			"font-size": "12px",
			"top": "1px !important",
			"left": "-5px !important",
			"line-height": "15px",
			"padding-left": "16px",
			"margin-right": "4px !important",
			"margin-bottom": "7px",
			"width": "auto !important"
		}
	},
	"message.selected": {
		"title": {
			"image": "top_selected.png"
		},
		"text": {
			"before": {
				"image": "middle_selected.png"
			}
		},
		"bottom": {
			"image": "bottom_selected.png"
		}
	},
	"message": {
		"@": {
			"padding": "5px 0 0"
		},
		"channel": {
			"display": "inline-block",
			"background-size": "contain",
			"-webkit-background-size": "contain",
			"width": "13px",
			"height": "13px",
			"position": "relative",
			"top": "2px",
			"margin-right": "4px",
			"left": "0"
		},
		"title": {
			"image": "top.png",
			"background-repeat": "no-repeat",
			"width": "296px",
			"height": "37px",
			"position": "relative",
			"top": "0",
			"z-index": "1",
			"font-size": "15px",
			"font-weight": "600",
			"font-family": "Calibri, Verdana",
			"color": "#ACB0C7",
			"text-overflow": "ellipsis",
			"white-space": "nowrap",
			"overflow": "hidden",
			"line-height": "38px",
			"padding-left": "16px",
			"padding-right": "38px"
		},
		"text": {
			"margin": "0 0 -13px",
			"padding": "3px 18px 0",
			"width": "296px",
			"position": "relative",
			"z-index": "2",
			"-webkit-line-clamp": "5",
			"overflow": "hidden",
			"text-overflow": "ellipsis",
			"line-height": "14px",
			"word-wrap": "break-word",
			"font-family": "Calibri, Verdana",
			"display": "-webkit-box",
			"font-weight": "400",
			"font-size": "14px",
			"color": "#C0C4E2",
			"-webkit-box-orient": "vertical",
			"min-height": "18px",
			"before": {
				"image": "middle.png",
				"background-repeat": "repeat-y",
				"position": "absolute",
				"width": "100%",
				"height": "calc(100% - 13px)",
				"left": "0",
				"top": "0",
				"z-index": "-1"
			}
		},
		"bottom": {
			"image": "bottom.png",
			"background-repeat": "no-repeat",
			"width": "296px",
			"height": "24px",
			"position": "relative",
			"bottom": "0",
			"z-index": "1"
		}
	}
}