{
	"extra": {
		"css": "fx.css"
	},
	"header": {
		"@": {
			"height": "40px",
			"z-index": "2",
			"position": "relative",
			"padding": "0 10px",
			"border-radius": "4px 4px 0 0",
			"margin": "0",
			"border": "0",
			"background": "#009688",
			"box-shadow": "inset 0 -1px 0 0 rgba(0, 0, 0, 0.82), 0 2px 3px 0px rgba(0, 0, 0, 0.1)",
			"before": {
				"content": "'🐑'",
				"color": "white",
				"line-height": "35px",
				"display": "inline-block",
				"font-size": "18px",
				"position": "relative",
				"top": "0"
			}
		},
		"apptitle": {
			"line-height": "35px",
			"text-align": "left",
			"display": "inline-block",
			"color": "white",
			"font-size": "16px",
			"font-weight": "400",
			"padding": "0 0 0 10px",
			"font-family": "'Roboto'"
		}
	},
	"statistic": {
		"channels_status": {
			"display": "block !important"
		},
		"channel": {
			"font-weight": "600",
			"font-size": "12px",
			"top": "1px !important",
			"left": "-5px !important",
			"line-height": "15px",
			"padding-left": "16px",
			"margin-right": "4px !important",
			"margin-bottom": "7px",
			"width": "auto !important"
		}
	},
	"message": {
		"@": {
			"padding": "0"
		},
		"channel": {
			"display": "inline-block",
			"background-size": "contain",
			"-webkit-background-size": "contain",
			"width": "13px",
			"height": "13px",
			"position": "relative",
			"top": "2px",
			"margin-right": "5px",
			"left": "0"
		},
		"title": {
			"background-repeat": "no-repeat",
			"width": "100%",
			"height": "24px",
			"position": "relative",
			"top": "0",
			"z-index": "1",
			"font-size": "13px",
			"font-weight": "400",
			"font-family": "'Roboto'",
			"color": "rgba(255, 255, 255, 0.45)",
			"text-overflow": "ellipsis",
			"white-space": "nowrap",
			"overflow": "hidden",
			"line-height": "24px",
			"padding-left": "1px",
			"padding-right": "1px"
		},
		"text": {
			"margin": "-3px 0 10px",
			"padding": "0 1px",
			"width": "100%",
			"position": "relative",
			"z-index": "2",
			"-webkit-line-clamp": "5",
			"overflow": "hidden",
			"text-overflow": "ellipsis",
			"line-height": "14px",
			"word-wrap": "break-word",
			"font-family": "'Roboto'",
			"display": "-webkit-box",
			"font-weight": "400",
			"font-size": "13px",
			"color": "white",
			"-webkit-box-orient": "vertical",
			"min-height": "18px"
		},
		"bottom": {
			"display": "none"
		}
	}
}